﻿[
  {
    "idpais": 1,
    "idempresa": 1,
    "display": "yo",
    "asunto": "algo",
    "enlace": "http://localhost:56646/Formulario/FormClient/?idpais=1&idempresa=1&",
    "mail": "autorizacionviajes@gloria.com.co",
    "psw": "inicio01",
    "ssl": true,
    "servidor": "smtp.office365.com",
    "puerto": 587,
    "mensaje": "Mensaje"
  }
]
